@startuml
abstract class Model.UserAccount.UserAccount
abstract class Model.Users.Users
annotation java.lang.Override
annotation java.lang.SuppressWarnings
class Controller.AppointmentController
class Controller.MedicineController
class Controller.Ratings
class Controller.UserAccountController
class Controller.UserController
class Main.GUISimulator
class Model.Appointment.Appointment
class Model.Medicines.Medicine
class Model.UserAccount.AdministratorAccount
class Model.UserAccount.DoctorAccount
class Model.UserAccount.PatientAccount
class Model.UserAccount.SecretaryAccount
class Model.UserAccountStrategy.AdministratorStrategy
class Model.UserAccountStrategy.DoctorStrategy
class Model.UserAccountStrategy.PatientStrategy
class Model.UserAccountStrategy.SecretaryStrategy
class Model.Users.Administrator
class Model.Users.Doctor
class Model.Users.Patient
class Model.Users.Secretary
class Others.RandomNumber
class Serialiser.Serialiser
class View.AdministratorPanel
class View.AppointmentPanel
class View.DoctorPanel
class View.JLogInPane
class View.JSignUpPane
class View.PatientHistoryPanel
class View.PatientPanel
class View.RatingPanel
class View.SecretaryPanel
class java.awt.event.ActionEvent
class java.io.BufferedReader
class java.io.BufferedWriter
class java.io.File
class java.io.FileInputStream
class java.io.FileNotFoundException
class java.io.FileOutputStream
class java.io.FileReader
class java.io.FileWriter
class java.io.IOException
class java.io.ObjectInputStream
class java.io.ObjectOutputStream
class java.util.ArrayList
class java.util.Date
class java.util.Enumeration
class java.util.Random
class java.util.regex.Matcher
class java.util.regex.Pattern
class javax.swing.AbstractButton
class javax.swing.ButtonGroup
class javax.swing.JDialog
class javax.swing.JPanel
class javax.swing.JTextArea
class javax.swing.JTextPane
interface Controller.Observer
interface Controller.PatObserver
interface Model.UserAccountStrategy.AccountStrategy
interface Model.Users.Observable
interface Model.Users.PatObservable
interface java.awt.event.ActionListener
interface java.io.Serializable
Model.UserAccount.UserAccount --|> java.io.Serializable
Model.Users.Users ..> Model.UserAccount.UserAccount
Model.Users.Users ..> java.util.regex.Matcher
Model.Users.Users ..> java.util.regex.Pattern
Model.Users.Users ..> Controller.Observer
Model.Users.Users ..> java.io.Serializable
Controller.AppointmentController ..> Model.Appointment.Appointment
Controller.AppointmentController ..> Model.Users.Doctor
Controller.AppointmentController ..> Model.Users.Patient
Controller.AppointmentController ..> View.AppointmentPanel
Controller.AppointmentController ..> java.util.Date
Controller.Ratings ..> View.PatientPanel
Controller.Ratings ..> javax.swing.JPanel
Controller.Ratings --|> java.io.Serializable
Controller.UserAccountController ..> Model.UserAccount.UserAccount
Controller.UserAccountController ..> Model.Users.Users
Controller.UserAccountController ..> java.lang.Override
Controller.UserAccountController ..> Model.UserAccountStrategy.AdministratorStrategy
Controller.UserAccountController ..> Model.UserAccountStrategy.DoctorStrategy
Controller.UserAccountController ..> Model.UserAccountStrategy.PatientStrategy
Controller.UserAccountController ..> Model.UserAccountStrategy.SecretaryStrategy
Controller.UserAccountController ..> Model.Users.Administrator
Controller.UserAccountController ..> Serialiser.Serialiser
Controller.UserAccountController ..> View.JSignUpPane
Controller.UserAccountController ..> java.awt.event.ActionEvent
Controller.UserAccountController ..> java.util.ArrayList
Controller.UserAccountController --|> java.awt.event.ActionListener
Controller.UserAccountController ..> java.io.Serializable
Controller.UserController ..> Model.Users.Observable
Main.GUISimulator ..> Model.UserAccount.UserAccount
Main.GUISimulator ..> Model.UserAccount.AdministratorAccount
Main.GUISimulator ..> Model.UserAccount.DoctorAccount
Main.GUISimulator ..> Model.UserAccount.PatientAccount
Main.GUISimulator ..> Model.UserAccount.SecretaryAccount
Main.GUISimulator ..> Serialiser.Serialiser
Main.GUISimulator ..> View.JLogInPane
Main.GUISimulator ..> java.util.ArrayList
Model.Appointment.Appointment ..> Model.Users.Doctor
Model.Appointment.Appointment ..> Model.Users.Patient
Model.Appointment.Appointment ..> java.util.Date
Model.Medicines.Medicine --|> java.io.Serializable
Model.UserAccount.AdministratorAccount --|> Model.UserAccount.UserAccount
Model.UserAccount.AdministratorAccount ..> Others.RandomNumber
Model.UserAccount.AdministratorAccount --|> java.io.Serializable
Model.UserAccount.DoctorAccount --|> Model.UserAccount.UserAccount
Model.UserAccount.DoctorAccount ..> Others.RandomNumber
Model.UserAccount.DoctorAccount --|> java.io.Serializable
Model.UserAccount.PatientAccount --|> Model.UserAccount.UserAccount
Model.UserAccount.PatientAccount ..> Others.RandomNumber
Model.UserAccount.PatientAccount --|> java.io.Serializable
Model.UserAccount.SecretaryAccount --|> Model.UserAccount.UserAccount
Model.UserAccount.SecretaryAccount ..> Others.RandomNumber
Model.UserAccount.SecretaryAccount --|> java.io.Serializable
Model.UserAccountStrategy.AdministratorStrategy ..> Model.Users.Administrator
Model.UserAccountStrategy.AdministratorStrategy ..> View.AdministratorPanel
Model.UserAccountStrategy.AdministratorStrategy ..> View.JSignUpPane
Model.UserAccountStrategy.AdministratorStrategy ..> java.util.ArrayList
Model.UserAccountStrategy.AdministratorStrategy --|> Model.UserAccountStrategy.AccountStrategy
Model.UserAccountStrategy.AdministratorStrategy ..> Model.Users.Observable
Model.UserAccountStrategy.DoctorStrategy ..> View.SecretaryPanel
Model.UserAccountStrategy.DoctorStrategy --|> Model.UserAccountStrategy.AccountStrategy
Model.UserAccountStrategy.PatientStrategy ..> View.SecretaryPanel
Model.UserAccountStrategy.PatientStrategy --|> Model.UserAccountStrategy.AccountStrategy
Model.UserAccountStrategy.SecretaryStrategy ..> View.AdministratorPanel
Model.UserAccountStrategy.SecretaryStrategy ..> View.SecretaryPanel
Model.UserAccountStrategy.SecretaryStrategy --|> Model.UserAccountStrategy.AccountStrategy
Model.Users.Administrator --|> Model.Users.Users
Model.Users.Administrator ..> java.lang.Override
Model.Users.Administrator ..> Model.UserAccount.AdministratorAccount
Model.Users.Administrator --|> Controller.Observer
Model.Users.Doctor --|> Model.Users.Users
Model.Users.Doctor ..> java.lang.Override
Model.Users.Doctor ..> Model.UserAccount.DoctorAccount
Model.Users.Doctor ..> Others.RandomNumber
Model.Users.Doctor ..> java.util.ArrayList
Model.Users.Doctor ..> Controller.Observer
Model.Users.Doctor --|> Model.Users.Observable
Model.Users.Patient --|> Model.Users.Users
Model.Users.Patient ..> java.lang.Override
Model.Users.Patient ..> Model.UserAccount.PatientAccount
Model.Users.Patient ..> java.util.ArrayList
Model.Users.Patient ..> java.util.Date
Model.Users.Patient ..> Controller.PatObserver
Model.Users.Patient --|> Model.Users.PatObservable
Model.Users.Secretary --|> Model.Users.Users
Model.Users.Secretary ..> java.lang.Override
Model.Users.Secretary ..> Model.UserAccount.SecretaryAccount
Model.Users.Secretary ..> View.JSignUpPane
Model.Users.Secretary ..> java.util.ArrayList
Model.Users.Secretary ..> Controller.Observer
Model.Users.Secretary --|> Controller.PatObserver
Model.Users.Secretary --|> Model.Users.Observable
Others.RandomNumber ..> java.util.ArrayList
Others.RandomNumber ..> java.util.Random
Serialiser.Serialiser ..> java.io.FileInputStream
Serialiser.Serialiser ..> java.io.FileOutputStream
Serialiser.Serialiser ..> java.io.IOException
Serialiser.Serialiser ..> java.io.ObjectInputStream
Serialiser.Serialiser ..> java.io.ObjectOutputStream
Serialiser.Serialiser ..> java.io.Serializable
View.AdministratorPanel ..> java.lang.SuppressWarnings
View.AdministratorPanel --|> javax.swing.JDialog
View.AdministratorPanel ..> javax.swing.JTextArea
View.AdministratorPanel ..> javax.swing.JTextPane
View.AppointmentPanel ..> java.lang.SuppressWarnings
View.AppointmentPanel ..> Model.Appointment.Appointment
View.AppointmentPanel ..> Model.Users.Doctor
View.AppointmentPanel ..> java.util.ArrayList
View.AppointmentPanel --|> javax.swing.JDialog
View.DoctorPanel ..> java.lang.SuppressWarnings
View.DoctorPanel --|> javax.swing.JDialog
View.JLogInPane ..> Model.UserAccount.UserAccount
View.JLogInPane ..> java.lang.SuppressWarnings
View.JLogInPane ..> Model.Users.Administrator
View.JLogInPane ..> Model.Users.Doctor
View.JLogInPane ..> Model.Users.Patient
View.JLogInPane ..> Model.Users.Secretary
View.JLogInPane ..> Serialiser.Serialiser
View.JLogInPane --|> javax.swing.JDialog
View.JSignUpPane ..> Model.Users.Users
View.JSignUpPane ..> java.lang.SuppressWarnings
View.JSignUpPane ..> Model.UserAccountStrategy.AdministratorStrategy
View.JSignUpPane ..> Model.UserAccountStrategy.DoctorStrategy
View.JSignUpPane ..> Model.UserAccountStrategy.PatientStrategy
View.JSignUpPane ..> Model.UserAccountStrategy.SecretaryStrategy
View.JSignUpPane ..> Serialiser.Serialiser
View.JSignUpPane ..> java.util.ArrayList
View.JSignUpPane ..> java.util.Enumeration
View.JSignUpPane ..> javax.swing.AbstractButton
View.JSignUpPane ..> javax.swing.ButtonGroup
View.JSignUpPane --|> javax.swing.JDialog
View.JSignUpPane ..> javax.swing.JTextArea
View.PatientHistoryPanel ..> java.lang.SuppressWarnings
View.PatientHistoryPanel ..> Controller.Ratings
View.PatientHistoryPanel ..> View.RatingPanel
View.PatientHistoryPanel ..> java.util.Date
View.PatientHistoryPanel --|> javax.swing.JDialog
View.PatientPanel ..> java.lang.SuppressWarnings
View.PatientPanel --|> javax.swing.JDialog
View.RatingPanel ..> java.lang.SuppressWarnings
View.RatingPanel ..> Controller.Ratings
View.RatingPanel ..> Serialiser.Serialiser
View.RatingPanel ..> java.io.BufferedReader
View.RatingPanel ..> java.io.BufferedWriter
View.RatingPanel ..> java.io.File
View.RatingPanel ..> java.io.FileNotFoundException
View.RatingPanel ..> java.io.FileReader
View.RatingPanel ..> java.io.FileWriter
View.RatingPanel ..> java.io.IOException
View.RatingPanel ..> java.util.ArrayList
View.RatingPanel --|> javax.swing.JDialog
View.SecretaryPanel ..> java.lang.SuppressWarnings
View.SecretaryPanel --|> javax.swing.JDialog
Model.Users.Observable ..> Controller.Observer
Model.Users.PatObservable ..> Controller.PatObserver
@enduml